(module Relay_SPDT_TR5V (layer F.Cu) (tedit 59FDF1F5)
  (descr "IM Signal Relay SPDT TR5V")
  (tags "Relay SPDT IM-relay TR5V")
  (fp_text reference REF** (at 0 -7.112) (layer F.SilkS)
    (effects (font (size 1 1) (thickness 0.15)))
  )
  (fp_text value Relay_SPDT_TR5V (at 0 7.112) (layer F.Fab)
    (effects (font (size 1 1) (thickness 0.15)))
  )
  (fp_text user %R (at 0 0) (layer F.Fab)
    (effects (font (size 1 1) (thickness 0.15)))
  )
  (fp_line (start 3.81 -6.096) (end 3.81 6.096) (layer F.SilkS) (width 0.12))
  (fp_line (start 3.81 6.096) (end -3.81 6.096) (layer F.SilkS) (width 0.12))
  (fp_line (start -3.81 6.096) (end -3.81 -6.096) (layer F.SilkS) (width 0.12))
  (fp_line (start -4.04 -6.33) (end 4.07 -6.33) (layer F.CrtYd) (width 0.05))
  (fp_line (start 4.07 -6.33) (end 4.07 6.33) (layer F.CrtYd) (width 0.05))
  (fp_line (start 4.07 6.33) (end -4.04 6.33) (layer F.CrtYd) (width 0.05))
  (fp_line (start -4.04 6.33) (end -4.04 -6.33) (layer F.CrtYd) (width 0.05))
  (fp_line (start -3.81 -6.096) (end 3.81 -6.096) (layer F.SilkS) (width 0.12))
  (fp_line (start -3.556 -5.842) (end 3.556 -5.842) (layer F.Fab) (width 0.1))
  (fp_line (start 3.556 -5.842) (end 3.556 5.842) (layer F.Fab) (width 0.1))
  (fp_line (start 3.556 5.842) (end -3.556 5.842) (layer F.Fab) (width 0.1))
  (fp_line (start -3.556 5.842) (end -3.556 -5.842) (layer F.Fab) (width 0.1))
  (fp_line (start 0.381 2.54) (end -0.0254 3.2004) (layer F.SilkS) (width 0.12))
  (fp_line (start -1.0668 2.4638) (end -1.0668 2.8702) (layer F.SilkS) (width 0.12))
  (fp_line (start -1.0668 2.8702) (end -0.635 2.8702) (layer F.SilkS) (width 0.12))
  (fp_line (start 1.0668 2.4638) (end 1.0668 2.8702) (layer F.SilkS) (width 0.12))
  (fp_line (start 1.0668 2.8702) (end 0.635 2.8702) (layer F.SilkS) (width 0.12))
  (fp_line (start 0.635 2.54) (end -0.635 2.54) (layer F.SilkS) (width 0.12))
  (fp_line (start -0.635 2.54) (end -0.635 3.2004) (layer F.SilkS) (width 0.12))
  (fp_line (start -0.635 3.2004) (end 0.635 3.2004) (layer F.SilkS) (width 0.12))
  (fp_line (start 0.635 2.54) (end 0.635 3.2004) (layer F.SilkS) (width 0.12))
  (pad 12 thru_hole oval (at 2.54 -5.08) (size 2.3 1.6) (drill 1) (layers *.Cu *.Mask))
  (pad 8 thru_hole oval (at 2.54 2.54) (size 2.3 1.6) (drill 1) (layers *.Cu *.Mask))
  (pad 1 thru_hole oval (at -2.54 -5.08) (size 2.3 1.6) (drill 1) (layers *.Cu *.Mask))
  (pad 5 thru_hole oval (at -2.54 2.54) (size 2.3 1.6) (drill 1) (layers *.Cu *.Mask))
  (pad 7 thru_hole oval (at 2.54 5.08) (size 2.3 1.6) (drill 1) (layers *.Cu *.Mask))
  (pad 6 thru_hole oval (at -2.54 5.08) (size 2.3 1.6) (drill 1) (layers *.Cu *.Mask))
)
