EESchema Schematic File Version 2
LIBS:power
LIBS:device
LIBS:transistors
LIBS:conn
LIBS:linear
LIBS:regul
LIBS:74xx
LIBS:cmos4000
LIBS:adc-dac
LIBS:memory
LIBS:xilinx
LIBS:microcontrollers
LIBS:dsp
LIBS:microchip
LIBS:analog_switches
LIBS:motorola
LIBS:texas
LIBS:intel
LIBS:audio
LIBS:interface
LIBS:digital-audio
LIBS:philips
LIBS:display
LIBS:cypress
LIBS:siliconi
LIBS:opto
LIBS:atmel
LIBS:contrib
LIBS:valves
LIBS:misc-giogziro95
LIBS:motors
LIBS:relays
LIBS:switches
LIBS:etcher-cache
EELAYER 25 0
EELAYER END
$Descr A3 16535 11693
encoding utf-8
Sheet 1 1
Title "PCB Etcher"
Date "2017-11-15"
Rev "1"
Comp "Suphra"
Comment1 ""
Comment2 ""
Comment3 ""
Comment4 ""
$EndDescr
$Comp
L Motor_Servo M1
U 1 1 595D41CA
P 11250 3600
F 0 "M1" H 11250 3785 50  0000 C BNN
F 1 "Servo motor" H 11250 3430 50  0000 C TNN
F 2 "Pin_Headers:Pin_Header_Straight_1x03_Pitch2.54mm" H 11250 3410 50  0001 C CNN
F 3 "" H 11250 3410 50  0001 C CNN
	1    11250 3600
	1    0    0    -1  
$EndComp
$Comp
L SW_Push SW2
U 1 1 5962263A
P 3350 3700
F 0 "SW2" H 3400 3800 50  0000 L CNN
F 1 "T+" H 3350 3640 50  0000 C CNN
F 2 "Pin_Headers:Pin_Header_Straight_1x02_Pitch2.54mm" H 3350 3900 50  0001 C CNN
F 3 "" H 3350 3900 50  0001 C CNN
	1    3350 3700
	1    0    0    -1  
$EndComp
$Comp
L SW_Push SW3
U 1 1 5962268B
P 3350 4000
F 0 "SW3" H 3400 4100 50  0000 L CNN
F 1 "T-" H 3350 3940 50  0000 C CNN
F 2 "Pin_Headers:Pin_Header_Straight_1x02_Pitch2.54mm" H 3350 4200 50  0001 C CNN
F 3 "" H 3350 4200 50  0001 C CNN
	1    3350 4000
	1    0    0    -1  
$EndComp
$Comp
L SW_Push SW1
U 1 1 5962457D
P 3350 3400
F 0 "SW1" H 3400 3500 50  0000 L CNN
F 1 "Start/pause/reset" H 3350 3340 50  0000 C CNN
F 2 "Pin_Headers:Pin_Header_Straight_1x02_Pitch2.54mm" H 3350 3600 50  0001 C CNN
F 3 "" H 3350 3600 50  0001 C CNN
	1    3350 3400
	1    0    0    -1  
$EndComp
Text Label 2300 4200 0    50   ~ 0
+5V
$Comp
L GND #PWR01
U 1 1 59627A32
P 4750 6500
F 0 "#PWR01" H 4750 6250 50  0001 C CNN
F 1 "GND" H 4750 6350 50  0000 C CNN
F 2 "" H 4750 6500 50  0001 C CNN
F 3 "" H 4750 6500 50  0001 C CNN
	1    4750 6500
	1    0    0    -1  
$EndComp
$Comp
L SW_Reed_Opener SW6
U 1 1 596348B6
P 11250 4100
F 0 "SW6" H 11250 4185 50  0000 C BNN
F 1 "Reed switch" H 11250 4015 50  0000 C TNN
F 2 "Pin_Headers:Pin_Header_Straight_1x02_Pitch2.54mm" H 11250 4100 50  0001 C CNN
F 3 "" H 11250 4100 50  0001 C CNN
	1    11250 4100
	1    0    0    -1  
$EndComp
$Comp
L GND #PWR02
U 1 1 596498C4
P 8700 1600
F 0 "#PWR02" H 8700 1350 50  0001 C CNN
F 1 "GND" H 8700 1450 50  0000 C CNN
F 2 "" H 8700 1600 50  0001 C CNN
F 3 "" H 8700 1600 50  0001 C CNN
	1    8700 1600
	1    0    0    -1  
$EndComp
Text Label 1350 5150 0    50   ~ 0
+5V
$Comp
L GND #PWR03
U 1 1 59651150
P 950 5000
F 0 "#PWR03" H 950 4750 50  0001 C CNN
F 1 "GND" H 950 4870 50  0000 C TNN
F 2 "" H 950 5000 50  0001 C CNN
F 3 "" H 950 5000 50  0001 C CNN
	1    950  5000
	1    0    0    -1  
$EndComp
$Comp
L AC_power #PWR1
U 1 1 59651154
P 950 2700
F 0 "#PWR1" H 1050 2700 50  0001 L CNN
F 1 "220V AC" V 1055 2700 50  0000 C TNN
F 2 "" H 950 2450 50  0001 C TNN
F 3 "" H 950 2350 50  0001 C TNN
	1    950  2700
	1    0    0    -1  
$EndComp
Text Label 8950 1750 0    50   ~ 0
+5V
$Comp
L GND #PWR04
U 1 1 596565DD
P 8700 2250
F 0 "#PWR04" H 8700 2000 50  0001 C CNN
F 1 "GND" H 8700 2100 50  0000 C CNN
F 2 "" H 8700 2250 50  0001 C CNN
F 3 "" H 8700 2250 50  0001 C CNN
	1    8700 2250
	1    0    0    -1  
$EndComp
Text Label 5200 5950 2    50   ~ 0
Proc
Text Label 8950 2400 0    50   ~ 0
Proc
Text Label 1250 2450 2    60   ~ 0
PWR1
Text Label 1350 2450 0    60   ~ 0
PWR2
$Comp
L SW_Push SW5
U 1 1 5964CEB0
P 4350 1450
F 0 "SW5" H 4400 1550 50  0000 L CNN
F 1 "PWR Off" H 4350 1390 50  0000 C CNN
F 2 "Pin_Headers:Pin_Header_Straight_1x02_Pitch2.54mm" H 4350 1650 50  0001 C CNN
F 3 "" H 4350 1650 50  0001 C CNN
	1    4350 1450
	1    0    0    -1  
$EndComp
$Comp
L TIANBO-HJR-4102-L K1
U 1 1 5964CEB6
P 6300 1900
F 0 "K1" H 6750 2050 50  0000 L CNN
F 1 "TR5V" H 6750 1950 50  0000 L CNN
F 2 "misc-giogziro95:Relay_SPDT_TR5V" H 7850 1870 50  0001 C CNN
F 3 "" H 6300 1900 50  0001 C CNN
	1    6300 1900
	1    0    0    -1  
$EndComp
Text Label 4100 1150 2    50   ~ 0
PWR1
Text Label 4600 1150 0    50   ~ 0
PWR2
$Comp
L R R1
U 1 1 5964CEBE
P 4250 2050
F 0 "R1" V 4165 2050 50  0000 C BNN
F 1 "10K" V 4250 2050 50  0000 C CNN
F 2 "Resistors_THT:R_Axial_DIN0207_L6.3mm_D2.5mm_P7.62mm_Horizontal" V 4180 2050 50  0001 C CNN
F 3 "" H 4250 2050 50  0001 C CNN
	1    4250 2050
	0    1    1    0   
$EndComp
Text Label 3150 2050 0    50   ~ 0
Off
$Comp
L Q_NPN_CBE Q1
U 1 1 5964CEC5
P 4700 2050
F 0 "Q1" H 4900 2100 50  0000 L CNN
F 1 "Q NPN" H 4900 2000 50  0000 L CNN
F 2 "TO_SOT_Packages_THT:TO-92_Inline_Wide" H 4900 2150 50  0001 C CNN
F 3 "" H 4700 2050 50  0001 C CNN
	1    4700 2050
	1    0    0    -1  
$EndComp
$Comp
L GND #PWR05
U 1 1 5964DDC5
P 4800 2450
F 0 "#PWR05" H 4800 2200 50  0001 C CNN
F 1 "GND" H 4800 2300 50  0000 C CNN
F 2 "" H 4800 2450 50  0001 C CNN
F 3 "" H 4800 2450 50  0001 C CNN
	1    4800 2450
	1    0    0    -1  
$EndComp
$Comp
L R R2
U 1 1 5964E44E
P 4800 1500
F 0 "R2" V 4870 1500 50  0000 C TNN
F 1 "5K1" V 4800 1500 50  0000 C CNN
F 2 "Resistors_THT:R_Axial_DIN0207_L6.3mm_D2.5mm_P7.62mm_Horizontal" V 4730 1500 50  0001 C CNN
F 3 "" H 4800 1500 50  0001 C CNN
	1    4800 1500
	1    0    0    -1  
$EndComp
Text Label 4800 950  0    50   ~ 0
+5V
$Comp
L Q_NPN_CBE Q2
U 1 1 5964E7CA
P 5250 1750
F 0 "Q2" H 5450 1800 50  0000 L CNN
F 1 "Q NPN" H 5450 1700 50  0000 L CNN
F 2 "TO_SOT_Packages_THT:TO-92_Inline_Wide" H 5450 1850 50  0001 C CNN
F 3 "" H 5250 1750 50  0001 C CNN
	1    5250 1750
	1    0    0    -1  
$EndComp
Text Label 4870 1750 0    50   ~ 0
~Off
$Comp
L SW_Push SW4
U 1 1 5965CF8F
P 4350 1150
F 0 "SW4" H 4400 1250 50  0000 L CNN
F 1 "PWR On" H 4350 1090 50  0000 C CNN
F 2 "Pin_Headers:Pin_Header_Straight_1x02_Pitch2.54mm" H 4350 1350 50  0001 C CNN
F 3 "" H 4350 1350 50  0001 C CNN
	1    4350 1150
	1    0    0    -1  
$EndComp
Text Label 5200 5850 2    50   ~ 0
Off
$Comp
L 7SEGM S1
U 1 1 59674A76
P 9450 4250
F 0 "S1" H 9450 4895 50  0000 C BNN
F 1 "Timer tens" H 9450 3620 50  0000 C TNN
F 2 "Pin_Headers:Pin_Header_Straight_1x10_Pitch2.54mm" H 9450 4250 50  0001 C CNN
F 3 "" H 9450 4250 50  0001 C CNN
	1    9450 4250
	1    0    0    -1  
$EndComp
$Comp
L 7SEGM S2
U 1 1 59674B6C
P 9450 5750
F 0 "S2" H 9450 6395 50  0000 C BNN
F 1 "Timer units" H 9450 5120 50  0000 C TNN
F 2 "Pin_Headers:Pin_Header_Straight_1x10_Pitch2.54mm" H 9450 5750 50  0001 C CNN
F 3 "" H 9450 5750 50  0001 C CNN
	1    9450 5750
	1    0    0    -1  
$EndComp
Text Label 8400 3950 0    50   ~ 0
S-A
Text Label 8400 4050 0    50   ~ 0
S-B
Text Label 8400 4150 0    50   ~ 0
S-C
Text Label 8400 4250 0    50   ~ 0
S-D
Text Label 8400 4350 0    50   ~ 0
S-E
Text Label 8400 4450 0    50   ~ 0
S-F
Text Label 8400 4550 0    50   ~ 0
S-G
Entry Wire Line
	8400 3950 8300 3850
Entry Wire Line
	8400 4050 8300 3950
Entry Wire Line
	8400 4150 8300 4050
Entry Wire Line
	8400 4250 8300 4150
Entry Wire Line
	8400 4350 8300 4250
Entry Wire Line
	8400 4450 8300 4350
Entry Wire Line
	8400 4550 8300 4450
Text Label 8400 3850 0    50   ~ 0
S1-K
Entry Wire Line
	8400 3850 8300 3750
Text Label 8400 5450 0    50   ~ 0
S-A
Text Label 8400 5550 0    50   ~ 0
S-B
Text Label 8400 5650 0    50   ~ 0
S-C
Text Label 8400 5750 0    50   ~ 0
S-D
Text Label 8400 5850 0    50   ~ 0
S-E
Text Label 8400 5950 0    50   ~ 0
S-F
Text Label 8400 6050 0    50   ~ 0
S-G
Text Label 8400 5350 0    50   ~ 0
S2-K
Text Label 7100 5550 2    50   ~ 0
S1-K
Text Label 7100 4750 2    50   ~ 0
S2-K
Entry Wire Line
	5500 4850 5600 4750
Entry Wire Line
	5500 4950 5600 4850
Entry Wire Line
	5500 5050 5600 4950
Entry Wire Line
	5500 5150 5600 5050
Entry Wire Line
	5500 5250 5600 5150
Entry Wire Line
	5500 5350 5600 5250
Entry Wire Line
	5500 5450 5600 5350
Entry Wire Line
	7100 5550 7200 5450
Entry Wire Line
	7100 4750 7200 4650
$Comp
L R R11
U 1 1 59684C81
P 9450 1350
F 0 "R11" V 9520 1350 50  0000 C TNN
F 1 "680" V 9450 1350 50  0000 C CNN
F 2 "Resistors_THT:R_Axial_DIN0207_L6.3mm_D2.5mm_P7.62mm_Horizontal" V 9380 1350 50  0001 C CNN
F 3 "" H 9450 1350 50  0001 C CNN
	1    9450 1350
	0    1    1    0   
$EndComp
$Comp
L R R12
U 1 1 59686AB3
P 9450 2000
F 0 "R12" V 9520 2000 50  0000 C TNN
F 1 "680" V 9450 2000 50  0000 C CNN
F 2 "Resistors_THT:R_Axial_DIN0207_L6.3mm_D2.5mm_P7.62mm_Horizontal" V 9380 2000 50  0001 C CNN
F 3 "" H 9450 2000 50  0001 C CNN
	1    9450 2000
	0    1    1    0   
$EndComp
Text Label 5500 4850 2    50   ~ 0
S-A
Text Label 5500 4950 2    50   ~ 0
S-B
Text Label 5500 5050 2    50   ~ 0
S-C
Text Label 5500 5150 2    50   ~ 0
S-D
Text Label 5500 5250 2    50   ~ 0
S-E
Text Label 5500 5350 2    50   ~ 0
S-F
Text Label 5500 5450 2    50   ~ 0
S-G
$Comp
L Buzzer BZ1
U 1 1 5977DF0E
P 5800 5850
F 0 "BZ1" H 5950 5900 50  0000 L CNN
F 1 "Buzzer" H 5950 5800 50  0000 L CNN
F 2 "Pin_Headers:Pin_Header_Straight_1x02_Pitch2.54mm" V 5775 5950 50  0001 C CNN
F 3 "" V 5775 5950 50  0001 C CNN
	1    5800 5850
	1    0    0    -1  
$EndComp
$Comp
L R_Small R3
U 1 1 5979B0F2
P 5100 4850
F 0 "R3" V 5110 4925 35  0000 L TNN
F 1 "620" V 5100 4850 35  0000 C CNN
F 2 "Resistors_THT:R_Axial_DIN0207_L6.3mm_D2.5mm_P7.62mm_Horizontal" H 5100 4850 50  0001 C CNN
F 3 "" H 5100 4850 50  0001 C CNN
	1    5100 4850
	0    1    1    0   
$EndComp
NoConn ~ 4900 5650
NoConn ~ 3000 4800
NoConn ~ 3000 5000
NoConn ~ 3000 5600
NoConn ~ 3000 5700
NoConn ~ 3000 5800
NoConn ~ 3000 5900
$Comp
L R R10
U 1 1 597AD238
P 5950 4650
F 0 "R10" V 6020 4650 50  0000 C TNN
F 1 "5K1" V 5950 4650 50  0000 C CNN
F 2 "Resistors_THT:R_Axial_DIN0207_L6.3mm_D2.5mm_P7.62mm_Horizontal" V 5880 4650 50  0001 C CNN
F 3 "" H 5950 4650 50  0001 C CNN
	1    5950 4650
	0    1    1    0   
$EndComp
$Comp
L C_Small C2
U 1 1 597AEC9B
P 5450 5750
F 0 "C2" V 5345 5750 50  0000 C BNN
F 1 "1µF" V 5540 5750 50  0000 C TNN
F 2 "Capacitors_THT:C_Rect_L7.2mm_W4.5mm_P5.00mm_FKS2_FKP2_MKS2_MKP2" H 5488 5600 50  0001 C CNN
F 3 "" H 5450 5750 50  0001 C CNN
	1    5450 5750
	0    1    1    0   
$EndComp
NoConn ~ 4150 4300
Entry Wire Line
	8400 5450 8300 5350
Entry Wire Line
	8400 5550 8300 5450
Entry Wire Line
	8400 5650 8300 5550
Entry Wire Line
	8400 5750 8300 5650
Entry Wire Line
	8400 5850 8300 5750
Entry Wire Line
	8400 5950 8300 5850
Entry Wire Line
	8400 6050 8300 5950
Entry Wire Line
	8400 5350 8300 5250
$Comp
L R_Small R4
U 1 1 5982031F
P 5100 4950
F 0 "R4" V 5110 5025 35  0000 L TNN
F 1 "620" V 5100 4950 35  0000 C CNN
F 2 "Resistors_THT:R_Axial_DIN0207_L6.3mm_D2.5mm_P7.62mm_Horizontal" H 5100 4950 50  0001 C CNN
F 3 "" H 5100 4950 50  0001 C CNN
	1    5100 4950
	0    1    1    0   
$EndComp
$Comp
L R_Small R5
U 1 1 59820BCE
P 5100 5050
F 0 "R5" V 5110 5125 35  0000 L TNN
F 1 "620" V 5100 5050 35  0000 C CNN
F 2 "Resistors_THT:R_Axial_DIN0207_L6.3mm_D2.5mm_P7.62mm_Horizontal" H 5100 5050 50  0001 C CNN
F 3 "" H 5100 5050 50  0001 C CNN
	1    5100 5050
	0    1    1    0   
$EndComp
$Comp
L R_Small R6
U 1 1 59820BD5
P 5100 5150
F 0 "R6" V 5110 5225 35  0000 L TNN
F 1 "620" V 5100 5150 35  0000 C CNN
F 2 "Resistors_THT:R_Axial_DIN0207_L6.3mm_D2.5mm_P7.62mm_Horizontal" H 5100 5150 50  0001 C CNN
F 3 "" H 5100 5150 50  0001 C CNN
	1    5100 5150
	0    1    1    0   
$EndComp
$Comp
L R_Small R7
U 1 1 59820D2B
P 5100 5250
F 0 "R7" V 5110 5325 35  0000 L TNN
F 1 "620" V 5100 5250 35  0000 C CNN
F 2 "Resistors_THT:R_Axial_DIN0207_L6.3mm_D2.5mm_P7.62mm_Horizontal" H 5100 5250 50  0001 C CNN
F 3 "" H 5100 5250 50  0001 C CNN
	1    5100 5250
	0    1    1    0   
$EndComp
$Comp
L R_Small R8
U 1 1 59820D32
P 5100 5350
F 0 "R8" V 5110 5425 35  0000 L TNN
F 1 "620" V 5100 5350 35  0000 C CNN
F 2 "Resistors_THT:R_Axial_DIN0207_L6.3mm_D2.5mm_P7.62mm_Horizontal" H 5100 5350 50  0001 C CNN
F 3 "" H 5100 5350 50  0001 C CNN
	1    5100 5350
	0    1    1    0   
$EndComp
$Comp
L R_Small R9
U 1 1 59820D39
P 5100 5450
F 0 "R9" V 5110 5525 35  0000 L TNN
F 1 "620" V 5100 5450 35  0000 C CNN
F 2 "Resistors_THT:R_Axial_DIN0207_L6.3mm_D2.5mm_P7.62mm_Horizontal" H 5100 5450 50  0001 C CNN
F 3 "" H 5100 5450 50  0001 C CNN
	1    5100 5450
	0    1    1    0   
$EndComp
$Comp
L Q_NPN_CBE Q4
U 1 1 59829943
P 6600 5450
F 0 "Q4" H 6800 5400 50  0000 L CNN
F 1 "Q NPN" H 6800 5500 50  0000 L CNN
F 2 "TO_SOT_Packages_THT:TO-92_Inline_Wide" H 6800 5550 50  0001 C CNN
F 3 "" H 6600 5450 50  0001 C CNN
	1    6600 5450
	0    1    1    0   
$EndComp
$Comp
L Q_PNP_CBE Q3
U 1 1 59829A3C
P 6600 4850
F 0 "Q3" H 6800 4900 50  0000 L CNN
F 1 "Q PNP" H 6800 4800 50  0000 L CNN
F 2 "TO_SOT_Packages_THT:TO-92_Inline_Wide" H 6800 4950 50  0001 C CNN
F 3 "" H 6600 4850 50  0001 C CNN
	1    6600 4850
	0    -1   -1   0   
$EndComp
Entry Wire Line
	7700 4950 7800 4850
Entry Wire Line
	7700 5050 7800 4950
Entry Wire Line
	7700 5150 7800 5050
Entry Wire Line
	10650 4100 10550 4000
Entry Wire Line
	10650 3600 10550 3500
Entry Wire Line
	10650 3500 10550 3400
Text Label 7700 4950 2    50   ~ 0
U1-D9
Text Label 7700 5050 2    50   ~ 0
+5V
Text Label 7700 5150 2    50   ~ 0
GND
Text Label 10650 3500 0    50   ~ 0
U1-D9
Text Label 10650 3600 0    50   ~ 0
+5V
Text Label 10650 4100 0    50   ~ 0
GND
NoConn ~ 8700 4650
NoConn ~ 8700 4750
NoConn ~ 8700 6150
NoConn ~ 8700 6250
NoConn ~ 6400 1600
$Comp
L AC-DC_power_supply PS1
U 1 1 59AFB98B
P 1300 3900
F 0 "PS1" H 1300 3900 50  0000 C CNN
F 1 "AC-DC power supply" H 1300 3750 50  0000 C CNN
F 2 "Pin_Headers:Pin_Header_Straight_1x04_Pitch2.54mm" H 1300 2700 50  0001 C TNN
F 3 "" H 1300 2600 50  0001 C TNN
	1    1300 3900
	0    1    1    0   
$EndComp
$Comp
L D_Schottky_ALT D2
U 1 1 59E13CD7
P 4400 6400
F 0 "D2" H 4400 6255 50  0000 C BNN
F 1 "1N5819" H 4400 6485 50  0000 C BNN
F 2 "Diodes_THT:D_DO-41_SOD81_P7.62mm_Horizontal" H 4400 6400 50  0001 C CNN
F 3 "" H 4400 6400 50  0001 C CNN
	1    4400 6400
	-1   0    0    1   
$EndComp
NoConn ~ 4900 4650
NoConn ~ 3000 4700
$Comp
L D_ALT D1
U 1 1 59EA2C6D
P 3600 2050
F 0 "D1" H 3600 1960 50  0000 C TNN
F 1 "1N4148" H 3600 2135 50  0000 C BNN
F 2 "Diodes_THT:D_DO-35_SOD27_P7.62mm_Horizontal" H 3600 2050 50  0001 C CNN
F 3 "" H 3600 2050 50  0001 C CNN
	1    3600 2050
	-1   0    0    1   
$EndComp
NoConn ~ 3000 5500
$Comp
L LED_ALT D3
U 1 1 59EAF0F8
P 9050 1350
F 0 "D3" H 9050 1445 50  0000 C BNN
F 1 "PWR LED" H 9050 1235 50  0000 C TNN
F 2 "Pin_Headers:Pin_Header_Straight_1x02_Pitch2.54mm" H 9050 1350 50  0001 C CNN
F 3 "" H 9050 1350 50  0001 C CNN
	1    9050 1350
	1    0    0    -1  
$EndComp
$Comp
L LED_ALT D4
U 1 1 59EB1342
P 9050 2000
F 0 "D4" H 9050 2095 50  0000 C BNN
F 1 "Proc LED" H 9050 1885 50  0000 C TNN
F 2 "Pin_Headers:Pin_Header_Straight_1x02_Pitch2.54mm" H 9050 2000 50  0001 C CNN
F 3 "" H 9050 2000 50  0001 C CNN
	1    9050 2000
	1    0    0    -1  
$EndComp
$Comp
L CP1_Small C1
U 1 1 59EBBC10
P 4250 2350
F 0 "C1" V 4350 2350 50  0000 C TNN
F 1 "22µF" V 4150 2350 50  0000 C BNN
F 2 "Capacitors_THT:CP_Radial_D4.0mm_P2.00mm" H 4250 2350 50  0001 C CNN
F 3 "" H 4250 2350 50  0001 C CNN
	1    4250 2350
	0    -1   -1   0   
$EndComp
Wire Wire Line
	3750 2050 4100 2050
Connection ~ 5600 6400
Wire Wire Line
	5600 6400 5600 5950
Wire Wire Line
	5600 5950 5700 5950
Wire Wire Line
	5550 5750 5700 5750
Wire Wire Line
	4900 5750 5350 5750
Wire Wire Line
	4800 1650 4800 1850
Wire Wire Line
	6200 4650 6100 4650
Wire Wire Line
	6200 5150 6200 4650
Connection ~ 6600 5150
Wire Wire Line
	6600 5150 6200 5150
Wire Wire Line
	6300 5550 6400 5550
Wire Wire Line
	6300 6400 6300 4750
Wire Wire Line
	6300 4750 6400 4750
Wire Wire Line
	6600 5050 6600 5250
Wire Wire Line
	5000 5450 4900 5450
Wire Wire Line
	5000 5350 4900 5350
Wire Wire Line
	5000 5250 4900 5250
Wire Wire Line
	5000 5150 4900 5150
Wire Wire Line
	5000 5050 4900 5050
Wire Wire Line
	5000 4950 4900 4950
Wire Wire Line
	5000 4850 4900 4850
Wire Bus Line
	8300 3250 8300 5950
Wire Wire Line
	4900 4750 5000 4650
Wire Wire Line
	7300 5150 7700 5150
Wire Wire Line
	7300 6400 7300 5150
Wire Wire Line
	6800 5550 7100 5550
Wire Wire Line
	2700 3700 3150 3700
Wire Wire Line
	9600 2000 9700 2000
Wire Wire Line
	9200 2000 9300 2000
Wire Wire Line
	9600 1350 9700 1350
Wire Wire Line
	9200 1350 9300 1350
Wire Wire Line
	5200 5450 5500 5450
Wire Wire Line
	5200 5350 5500 5350
Wire Wire Line
	5200 5250 5500 5250
Wire Wire Line
	5200 5150 5500 5150
Wire Wire Line
	5200 5050 5500 5050
Wire Wire Line
	5200 4950 5500 4950
Wire Wire Line
	5200 4850 5500 4850
Wire Wire Line
	8700 5350 8400 5350
Wire Wire Line
	8700 6050 8400 6050
Wire Wire Line
	8700 5950 8400 5950
Wire Wire Line
	8700 5850 8400 5850
Wire Wire Line
	8700 5750 8400 5750
Wire Wire Line
	8700 5650 8400 5650
Wire Wire Line
	8700 5550 8400 5550
Wire Wire Line
	8700 5450 8400 5450
Wire Wire Line
	8700 3850 8400 3850
Wire Wire Line
	8400 4550 8700 4550
Wire Wire Line
	8700 4450 8400 4450
Wire Wire Line
	8700 4350 8400 4350
Wire Wire Line
	8700 4250 8400 4250
Wire Wire Line
	8700 4150 8400 4150
Wire Wire Line
	8700 4050 8400 4050
Wire Wire Line
	8700 3950 8400 3950
Wire Wire Line
	2600 5400 3000 5400
Wire Wire Line
	2600 4000 2600 5400
Wire Wire Line
	2600 4000 3150 4000
Connection ~ 3750 4000
Wire Wire Line
	3750 3400 3550 3400
Connection ~ 3750 3700
Wire Wire Line
	2700 5300 3000 5300
Wire Wire Line
	2700 3700 2700 5300
Wire Wire Line
	2800 5200 3000 5200
Wire Wire Line
	2800 3400 2800 5200
Wire Wire Line
	3150 3400 2800 3400
Wire Wire Line
	3550 3700 3750 3700
Wire Wire Line
	3850 6400 3850 6300
Connection ~ 4750 6400
Wire Wire Line
	4750 6400 4750 6500
Wire Wire Line
	5700 5550 5700 4100
Wire Wire Line
	3750 3400 3750 4300
Wire Wire Line
	3950 4200 3950 4300
Wire Wire Line
	8900 1350 8700 1350
Wire Wire Line
	8700 1350 8700 1600
Wire Wire Line
	1350 2450 1650 2450
Wire Wire Line
	1650 5150 1350 5150
Wire Wire Line
	950  2450 950  2550
Wire Wire Line
	1250 2450 950  2450
Wire Wire Line
	950  2950 950  2850
Wire Wire Line
	1150 2950 950  2950
Wire Wire Line
	9700 1350 9700 1750
Wire Wire Line
	9700 1750 8950 1750
Wire Wire Line
	8900 2000 8700 2000
Wire Wire Line
	8700 2000 8700 2250
Wire Wire Line
	4900 5950 5200 5950
Wire Wire Line
	9700 2000 9700 2400
Wire Wire Line
	9700 2400 8950 2400
Wire Wire Line
	6600 1150 4550 1150
Wire Wire Line
	6600 1600 6600 1150
Wire Wire Line
	6500 2200 6500 2700
Wire Wire Line
	4800 2250 4800 2450
Wire Wire Line
	4500 2050 4400 2050
Wire Wire Line
	3450 2050 3150 2050
Wire Wire Line
	4800 1350 4800 1250
Wire Wire Line
	4800 1750 5050 1750
Connection ~ 4800 1750
Wire Wire Line
	5350 2350 5350 1950
Connection ~ 4800 2350
Wire Wire Line
	5350 1550 5350 1450
Wire Wire Line
	5350 1450 5800 1450
Wire Wire Line
	5800 1450 5800 2350
Wire Wire Line
	5800 2350 6100 2350
Wire Wire Line
	6100 2350 6100 2200
Wire Wire Line
	6100 1250 6100 1600
Wire Wire Line
	4650 1250 6100 1250
Wire Wire Line
	3850 1150 4150 1150
Wire Wire Line
	4650 1450 4550 1450
Wire Wire Line
	3950 1450 4150 1450
Wire Wire Line
	6500 2700 3850 2700
Wire Wire Line
	3850 2700 3850 1150
Wire Wire Line
	5450 1250 5450 950 
Wire Wire Line
	5450 950  4800 950 
Connection ~ 5450 1250
Wire Wire Line
	4900 5850 5200 5850
Wire Wire Line
	6800 4750 7100 4750
Wire Wire Line
	7300 5050 7700 5050
Wire Wire Line
	5700 4100 7400 4100
Wire Wire Line
	7400 4100 7400 4950
Wire Wire Line
	7400 4950 7700 4950
Wire Wire Line
	10950 3700 10850 3700
Wire Wire Line
	10850 3700 10850 3900
Wire Wire Line
	10850 3900 11550 3900
Wire Wire Line
	11550 3900 11550 4100
Wire Wire Line
	11550 4100 11450 4100
Connection ~ 3950 4200
Wire Wire Line
	7300 4200 7300 5050
Wire Wire Line
	3750 4000 3550 4000
Connection ~ 6300 6400
Connection ~ 6300 5550
Wire Wire Line
	10950 3500 10650 3500
Wire Wire Line
	10950 3600 10650 3600
Wire Wire Line
	11050 4100 10650 4100
Wire Bus Line
	10550 3000 10550 4000
Wire Wire Line
	1650 4800 1650 5150
Wire Wire Line
	950  4800 950  5000
Wire Wire Line
	1150 2950 1150 3050
Wire Wire Line
	1650 2450 1650 2950
Wire Wire Line
	1650 2950 1450 2950
Wire Wire Line
	1450 2950 1450 3050
Wire Wire Line
	950  4800 1150 4800
Wire Wire Line
	1150 4800 1150 4750
Wire Wire Line
	1650 4800 1450 4800
Wire Wire Line
	1450 4800 1450 4750
Wire Bus Line
	5600 4300 7200 4300
Wire Bus Line
	7200 4300 7200 5450
Wire Bus Line
	5600 4300 5400 4100
Wire Bus Line
	5400 4100 5400 3250
Wire Bus Line
	5400 3250 8300 3250
Wire Bus Line
	7800 3000 7800 5050
Wire Bus Line
	7800 3000 10550 3000
Wire Wire Line
	2300 4200 7300 4200
Wire Wire Line
	4900 5550 5700 5550
Wire Wire Line
	5000 4650 5800 4650
Wire Bus Line
	5600 4300 5600 5350
Wire Wire Line
	4550 6400 7300 6400
Wire Wire Line
	4650 1450 4650 1250
Connection ~ 4800 1250
Wire Wire Line
	4350 2350 5350 2350
Wire Wire Line
	3950 1450 3950 2350
Connection ~ 3950 2050
Wire Notes Line
	2950 2900 7100 2900
Wire Notes Line
	2950 700  2950 2900
Wire Notes Line
	7100 700  2950 700 
Wire Notes Line
	7100 2900 7100 700 
Wire Notes Line
	8450 1050 8450 2600
Wire Notes Line
	9900 1050 8450 1050
Wire Notes Line
	8450 2600 9900 2600
Wire Notes Line
	9900 2600 9900 1050
Wire Notes Line
	10400 4450 11750 4450
Wire Notes Line
	11750 4450 11750 3150
Wire Notes Line
	11750 3150 10400 3150
Wire Notes Line
	10400 3150 10400 4450
Wire Notes Line
	10200 3350 8150 3350
Wire Notes Line
	10200 6650 10200 3350
Wire Notes Line
	8150 3350 8150 6650
Wire Notes Line
	8150 6650 10200 6650
Wire Notes Line
	2100 6850 7950 6850
Wire Notes Line
	7950 6850 7950 3100
Wire Notes Line
	7950 3100 2100 3100
Wire Notes Line
	2100 3100 2100 6850
Wire Notes Line
	700  2250 1900 2250
Wire Notes Line
	700  5350 700  2250
Wire Notes Line
	1900 2250 1900 5350
Wire Notes Line
	1900 5350 700  5350
Wire Wire Line
	3950 2350 4150 2350
Wire Wire Line
	3850 6400 4250 6400
NoConn ~ 4050 6300
$Comp
L Arduino_Nano_R3 U1
U 1 1 595D09C2
P 3950 5300
F 0 "U1" H 3950 5350 50  0000 C CNN
F 1 "Arduino Nano R3" H 3950 5200 50  0000 C CNN
F 2 "Modules:Arduino_Nano" H 3950 4100 50  0001 C TNN
F 3 "" H 3950 4000 50  0001 C TNN
	1    3950 5300
	1    0    0    -1  
$EndComp
$EndSCHEMATC
