<?xml version="1.0" encoding="UTF-8" standalone="no"?>
<!-- Created with Inkscape (http://www.inkscape.org/) -->

<svg
   xmlns:dc="http://purl.org/dc/elements/1.1/"
   xmlns:cc="http://creativecommons.org/ns#"
   xmlns:rdf="http://www.w3.org/1999/02/22-rdf-syntax-ns#"
   xmlns:svg="http://www.w3.org/2000/svg"
   xmlns="http://www.w3.org/2000/svg"
   xmlns:sodipodi="http://sodipodi.sourceforge.net/DTD/sodipodi-0.dtd"
   xmlns:inkscape="http://www.inkscape.org/namespaces/inkscape"
   width="125mm"
   height="72mm"
   viewBox="0 0 125 72"
   version="1.1"
   id="svg8"
   inkscape:version="0.92.2 5c3e80d, 2017-08-06"
   sodipodi:docname="front.svg">
  <defs
     id="defs2" />
  <sodipodi:namedview
     id="base"
     pagecolor="#ffffff"
     bordercolor="#666666"
     borderopacity="1.0"
     inkscape:pageopacity="0"
     inkscape:pageshadow="2"
     inkscape:zoom="2.0100984"
     inkscape:cx="236.22047"
     inkscape:cy="136.06299"
     inkscape:document-units="mm"
     inkscape:current-layer="layer1"
     showgrid="true"
     inkscape:pagecheckerboard="false"
     borderlayer="true"
     showborder="true"
     showguides="true"
     inkscape:guide-bbox="true"
     inkscape:measure-start="100,220"
     inkscape:measure-end="80,140"
     inkscape:window-width="1366"
     inkscape:window-height="744"
     inkscape:window-x="0"
     inkscape:window-y="24"
     inkscape:window-maximized="1">
    <inkscape:grid
       type="xygrid"
       id="grid10"
       empspacing="5"
       units="mm"
       spacingx="0.99999999"
       spacingy="0.99999999"
       originx="2.5"
       originy="1" />
  </sodipodi:namedview>
  <metadata
     id="metadata5">
    <rdf:RDF>
      <cc:Work
         rdf:about="">
        <dc:format>image/svg+xml</dc:format>
        <dc:type
           rdf:resource="http://purl.org/dc/dcmitype/StillImage" />
        <dc:title></dc:title>
      </cc:Work>
    </rdf:RDF>
  </metadata>
  <g
     inkscape:label="Layer 1"
     inkscape:groupmode="layer"
     id="layer1"
     transform="translate(0,-225)">
    <rect
       style="opacity:1;fill:#ffffff;fill-opacity:1;fill-rule:nonzero;stroke:#1a1a1a;stroke-width:0.5;stroke-linecap:round;stroke-linejoin:round;stroke-miterlimit:4;stroke-dasharray:none;stroke-opacity:1"
       id="rect43"
       width="124.50001"
       height="71.5"
       x="0.25"
       y="225.25"
       rx="5"
       ry="5" />
    <rect
       style="opacity:1;fill:none;fill-opacity:1;fill-rule:nonzero;stroke:none;stroke-width:1.32291663;stroke-linecap:round;stroke-linejoin:round;stroke-miterlimit:4;stroke-dasharray:none;stroke-opacity:1"
       id="rect82"
       width="15"
       height="15"
       x="7.5"
       y="250.99998" />
    <rect
       style="opacity:1;fill:none;fill-opacity:1;fill-rule:nonzero;stroke:none;stroke-width:1.32291663;stroke-linecap:round;stroke-linejoin:round;stroke-miterlimit:4;stroke-dasharray:none;stroke-opacity:1"
       id="rect86"
       width="15"
       height="15"
       x="7.5"
       y="265.99997" />
    <rect
       style="opacity:1;fill:none;fill-opacity:1;fill-rule:nonzero;stroke:none;stroke-width:1.32291663;stroke-linecap:round;stroke-linejoin:round;stroke-miterlimit:4;stroke-dasharray:none;stroke-opacity:1"
       id="rect88"
       width="15"
       height="15"
       x="27.5"
       y="250.99998" />
    <rect
       style="opacity:1;fill:none;fill-opacity:1;fill-rule:nonzero;stroke:none;stroke-width:1.32291663;stroke-linecap:round;stroke-linejoin:round;stroke-miterlimit:4;stroke-dasharray:none;stroke-opacity:1"
       id="rect90"
       width="15"
       height="15"
       x="27.5"
       y="265.99997" />
    <rect
       style="opacity:1;fill:none;fill-opacity:1;fill-rule:nonzero;stroke:none;stroke-width:1.32291663;stroke-linecap:round;stroke-linejoin:round;stroke-miterlimit:4;stroke-dasharray:none;stroke-opacity:1"
       id="rect92"
       width="15"
       height="30.000002"
       x="47.5"
       y="250.99998" />
    <rect
       style="opacity:1;fill:none;fill-opacity:1;fill-rule:nonzero;stroke:none;stroke-width:1.32291663;stroke-linecap:round;stroke-linejoin:round;stroke-miterlimit:4;stroke-dasharray:none;stroke-opacity:1"
       id="rect94"
       width="15"
       height="15"
       x="7.5"
       y="235.99998" />
    <rect
       style="opacity:1;fill:none;fill-opacity:1;fill-rule:nonzero;stroke:none;stroke-width:1.32291663;stroke-linecap:round;stroke-linejoin:round;stroke-miterlimit:4;stroke-dasharray:none;stroke-opacity:1"
       id="rect96"
       width="15"
       height="15"
       x="47.5"
       y="235.99998" />
    <rect
       style="opacity:1;fill:none;fill-opacity:1;fill-rule:nonzero;stroke:none;stroke-width:1.32291663;stroke-linecap:round;stroke-linejoin:round;stroke-miterlimit:4;stroke-dasharray:none;stroke-opacity:1"
       id="rect98"
       width="40"
       height="69.999992"
       x="82.5"
       y="225.99998" />
    <circle
       style="opacity:1;fill:#008000;fill-opacity:1;fill-rule:nonzero;stroke:none;stroke-width:1.32291663;stroke-linecap:round;stroke-linejoin:round;stroke-miterlimit:4;stroke-dasharray:none;stroke-opacity:1"
       id="path16"
       cx="15"
       cy="258.49997"
       r="3.5" />
    <circle
       r="3.5"
       cy="273.49997"
       cx="15"
       id="circle18"
       style="opacity:1;fill:#ff0000;fill-opacity:1;fill-rule:nonzero;stroke:none;stroke-width:1.32291663;stroke-linecap:round;stroke-linejoin:round;stroke-miterlimit:4;stroke-dasharray:none;stroke-opacity:1" />
    <circle
       style="opacity:1;fill:#1a1a1a;fill-opacity:1;fill-rule:nonzero;stroke:none;stroke-width:1.32291663;stroke-linecap:round;stroke-linejoin:round;stroke-miterlimit:4;stroke-dasharray:none;stroke-opacity:1"
       id="circle20"
       cx="35"
       cy="258.49997"
       r="3.5" />
    <circle
       r="3.5"
       cy="273.49997"
       cx="35"
       id="circle22"
       style="opacity:1;fill:#1a1a1a;fill-opacity:1;fill-rule:nonzero;stroke:none;stroke-width:1.32291663;stroke-linecap:round;stroke-linejoin:round;stroke-miterlimit:4;stroke-dasharray:none;stroke-opacity:1" />
    <circle
       style="opacity:1;fill:#1a1a1a;fill-opacity:1;fill-rule:nonzero;stroke:none;stroke-width:1.32291663;stroke-linecap:round;stroke-linejoin:round;stroke-miterlimit:4;stroke-dasharray:none;stroke-opacity:1"
       id="circle24"
       cx="55"
       cy="265.99997"
       r="3.5" />
    <circle
       style="opacity:1;fill:#00ff00;fill-opacity:1;fill-rule:nonzero;stroke:none;stroke-width:1.32291663;stroke-linecap:round;stroke-linejoin:round;stroke-miterlimit:4;stroke-dasharray:none;stroke-opacity:1"
       id="path28"
       cx="15"
       cy="243.49998"
       r="1.5" />
    <circle
       r="1.5"
       cy="243.49998"
       cx="55"
       id="circle30"
       style="opacity:1;fill:#ffff00;fill-opacity:1;fill-rule:nonzero;stroke:none;stroke-width:1.32291663;stroke-linecap:round;stroke-linejoin:round;stroke-miterlimit:4;stroke-dasharray:none;stroke-opacity:1" />
    <rect
       style="opacity:1;fill:#333333;fill-opacity:1;fill-rule:nonzero;stroke:none;stroke-width:1.32291663;stroke-linecap:round;stroke-linejoin:round;stroke-miterlimit:4;stroke-dasharray:none;stroke-opacity:1"
       id="rect26"
       width="25"
       height="19"
       x="90"
       y="251.49998" />
    <text
       xml:space="preserve"
       style="font-style:normal;font-variant:normal;font-weight:normal;font-stretch:normal;font-size:3.88055563px;line-height:1.25em;font-family:'Noto sans';-inkscape-font-specification:'Noto sans';text-align:center;letter-spacing:0px;word-spacing:0px;text-anchor:middle;fill:#000000;fill-opacity:1;stroke:none;stroke-width:0.26458332px;stroke-linecap:butt;stroke-linejoin:miter;stroke-opacity:1"
       x="15.040738"
       y="253.06409"
       id="text121"><tspan
         sodipodi:role="line"
         id="tspan119"
         x="15.040738"
         y="253.06409"
         style="font-size:3.88055563px;text-align:center;text-anchor:middle;stroke-width:0.26458332px">On</tspan></text>
    <text
       id="text125"
       y="268.06409"
       x="14.797256"
       style="font-style:normal;font-variant:normal;font-weight:normal;font-stretch:normal;font-size:3.88055563px;line-height:1.25em;font-family:'Noto sans';-inkscape-font-specification:'Noto sans';text-align:center;letter-spacing:0px;word-spacing:0px;text-anchor:middle;fill:#000000;fill-opacity:1;stroke:none;stroke-width:0.26458332px;stroke-linecap:butt;stroke-linejoin:miter;stroke-opacity:1"
       xml:space="preserve"><tspan
         style="font-size:3.88055563px;text-align:center;text-anchor:middle;stroke-width:0.26458332px"
         y="268.06409"
         x="14.797256"
         id="tspan123"
         sodipodi:role="line">Off</tspan></text>
    <text
       xml:space="preserve"
       style="font-style:normal;font-variant:normal;font-weight:normal;font-stretch:normal;font-size:3.88055563px;line-height:1.25em;font-family:'Noto sans';-inkscape-font-specification:'Noto sans';text-align:center;letter-spacing:0px;word-spacing:0px;text-anchor:middle;fill:#000000;fill-opacity:1;stroke:none;stroke-width:0.26458332px;stroke-linecap:butt;stroke-linejoin:miter;stroke-opacity:1"
       x="35.082424"
       y="253.06398"
       id="text129"><tspan
         sodipodi:role="line"
         id="tspan127"
         x="35.082424"
         y="253.06398"
         style="font-size:3.88055563px;text-align:center;text-anchor:middle;stroke-width:0.26458332px">T+</tspan></text>
    <text
       id="text133"
       y="268.06396"
       x="35.080528"
       style="font-style:normal;font-variant:normal;font-weight:normal;font-stretch:normal;font-size:3.88055563px;line-height:1.25em;font-family:'Noto sans';-inkscape-font-specification:'Noto sans';text-align:center;letter-spacing:0px;word-spacing:0px;text-anchor:middle;fill:#000000;fill-opacity:1;stroke:none;stroke-width:0.26458332px;stroke-linecap:butt;stroke-linejoin:miter;stroke-opacity:1"
       xml:space="preserve"><tspan
         style="font-size:3.88055563px;text-align:center;text-anchor:middle;stroke-width:0.26458332px"
         y="268.06396"
         x="35.080528"
         id="tspan131"
         sodipodi:role="line">T−</tspan></text>
    <text
       xml:space="preserve"
       style="font-style:normal;font-variant:normal;font-weight:normal;font-stretch:normal;font-size:3.88055563px;line-height:1.25em;font-family:'Noto sans';-inkscape-font-specification:'Noto sans';text-align:center;letter-spacing:0px;word-spacing:0px;text-anchor:middle;fill:#000000;fill-opacity:1;stroke:none;stroke-width:0.26458332px;stroke-linecap:butt;stroke-linejoin:miter;stroke-opacity:1"
       x="54.910946"
       y="255.71339"
       id="text137"><tspan
         sodipodi:role="line"
         x="54.910946"
         y="255.71339"
         style="font-size:3.88055563px;text-align:center;text-anchor:middle;stroke-width:0.26458332px"
         id="tspan153">Start</tspan><tspan
         sodipodi:role="line"
         x="54.910946"
         y="260.56409"
         style="font-size:3.88055563px;text-align:center;text-anchor:middle;stroke-width:0.26458332px"
         id="tspan161">Pause</tspan></text>
    <text
       id="text169"
       y="273.44806"
       x="54.855049"
       style="font-style:normal;font-variant:normal;font-weight:normal;font-stretch:normal;font-size:3.88055563px;line-height:1.25em;font-family:'Noto sans';-inkscape-font-specification:'Noto sans';text-align:center;letter-spacing:0px;word-spacing:0px;text-anchor:middle;fill:#000000;fill-opacity:1;stroke:none;stroke-width:0.26458332px;stroke-linecap:butt;stroke-linejoin:miter;stroke-opacity:1"
       xml:space="preserve"><tspan
         id="tspan167"
         style="font-size:3.88055563px;text-align:center;text-anchor:middle;stroke-width:0.26458332px"
         y="273.44806"
         x="54.855049"
         sodipodi:role="line">Reset</tspan></text>
    <text
       id="text141"
       y="240.06409"
       x="14.842731"
       style="font-style:normal;font-variant:normal;font-weight:normal;font-stretch:normal;font-size:3.88055563px;line-height:1.25em;font-family:'Noto sans';-inkscape-font-specification:'Noto sans';text-align:center;letter-spacing:0px;word-spacing:0px;text-anchor:middle;fill:#000000;fill-opacity:1;stroke:none;stroke-width:0.26458332px;stroke-linecap:butt;stroke-linejoin:miter;stroke-opacity:1"
       xml:space="preserve"><tspan
         style="font-size:3.88055563px;text-align:center;text-anchor:middle;stroke-width:0.26458332px"
         y="240.06409"
         x="14.842731"
         id="tspan139"
         sodipodi:role="line">Power</tspan></text>
    <text
       xml:space="preserve"
       style="font-style:normal;font-variant:normal;font-weight:normal;font-stretch:normal;font-size:3.88055563px;line-height:1.25em;font-family:'Noto sans';-inkscape-font-specification:'Noto sans';text-align:center;letter-spacing:0px;word-spacing:0px;text-anchor:middle;fill:#000000;fill-opacity:1;stroke:none;stroke-width:0.26458332px;stroke-linecap:butt;stroke-linejoin:miter;stroke-opacity:1"
       x="54.897682"
       y="240.06409"
       id="text145"><tspan
         sodipodi:role="line"
         id="tspan143"
         x="54.897682"
         y="240.06409"
         style="font-size:3.88055563px;text-align:center;text-anchor:middle;stroke-width:0.26458332px">Process</tspan></text>
    <text
       id="text149"
       y="248.56407"
       x="102.56063"
       style="font-style:normal;font-variant:normal;font-weight:normal;font-stretch:normal;font-size:3.88055563px;line-height:1.25em;font-family:'Noto sans';-inkscape-font-specification:'Noto sans';text-align:center;letter-spacing:0px;word-spacing:0px;text-anchor:middle;fill:#000000;fill-opacity:1;stroke:none;stroke-width:0.26458332px;stroke-linecap:butt;stroke-linejoin:miter;stroke-opacity:1"
       xml:space="preserve"><tspan
         style="font-size:3.88055563px;text-align:center;text-anchor:middle;stroke-width:0.26458332px"
         y="248.56407"
         x="102.56063"
         id="tspan147"
         sodipodi:role="line">Time left (mins)</tspan></text>
  </g>
</svg>
